{
    "StackName": "esm-hsci-fm16-prod-kms-cf",
    "Parameters": [
        {
            "ParameterValue": "Production",
            "ParameterKey": "TagEnvironment"
        },
        {
            "ParameterValue": "level4",
            "ParameterKey": "Context"
        },
        {
            "ParameterValue": "ebs",
            "ParameterKey": "Type"
        },
        {
            "ParameterValue": "hsci-fm16",
            "ParameterKey": "TagProduct"
        },
        {
            "ParameterValue": "arn:aws:iam::949726781110:user/apacheco,arn:aws:iam::949726781110:user/sebeyon_kingsview",
            "ParameterKey": "KmsUserList"
        }
    ],
    "Tags": [
        {
            "Key": "Name",
            "Value": "esm-hsci-fm16-prod-kms-cf"
        },
        {
            "Key": "environment",
            "Value": "Production"
        },
        {
            "Key": "huit_assetid",
            "Value": "9377"
        },
        {
            "Key": "product",
            "Value": "hsci-fm16"
        }
    ]
}