{
 "AWSTemplateFormatVersion": "2010-09-09",
 "Description": "HCDO Standard CloudFormation Stack - EC2 CloudWatch Alarms",
 "Parameters" : {
   "InstanceId" : {
     "Description" : "The EC2 instance ID to associate this alarm with.",
     "Type" : "AWS::EC2::Instance::Id"
   }
 },
 "Resources": {
   "RecoveryTestAlarm": {
     "Type": "AWS::CloudWatch::Alarm",
     "Properties": {
       "AlarmDescription": "Trigger a recovery when instance status check fails for 15 consecutive minutes.",
       "Namespace": "AWS/EC2" ,
       "MetricName": "StatusCheckFailed_System",
       "Statistic": "Minimum",
       "Period": "60",
       "EvaluationPeriods": "15",
       "ComparisonOperator": "GreaterThanThreshold",
       "Threshold": "0",
       "AlarmActions": [ {"Fn::Join" : ["", ["arn:aws:automate:", { "Ref" : "AWS::Region" }, ":ec2:recover" ]]} ],
       "Dimensions": [{"Name": "InstanceId","Value": {"Ref": "InstanceId"}}]
     }
   }
 }
}